…
## The following objects are masked from 'package:stats':
## 
##     cov, smooth, var

library(DataExplorer)

## Warning: package 'DataExplorer' was built under R version 4.3.3

social_media <- read_excel("social_media_cleaned.xlsx")
social_media_numeric <- select_if(social_media, is.numeric)

print(social_media)

## # A tibble: 21 × 13
##    character Instagram LinkedIn SnapChat Twitter `Whatsapp/Wechat` youtube   OTT
##    <chr>         <dbl>    <dbl>    <dbl>   <dbl>             <dbl>   <dbl> <dbl>
##  1 masinl        3.5      4        1       5                  1       2.5   14.5
##  2 peace         7.73     5.2      3.68    0                  4.18    4.25   0  
##  3 Patty         3.77     7        0.533   0                  9.83    1.85   2  
##  4 Bunny         5.38     5.32     1.3     0                  5.3     2      2  
##  5 tl868        12        0.583    0       0.667              3       3.5    2  
##  6 drphy         2.33     7        0.467   0                 12       7      3  
##  7 trave         5.37     4        0       0                  6       3      0  
##  8 19!@s         7        4        3       0                 10       2      3  
##  9 yh2020        8.65    10        3.83    0                  6.15    4      3  
## 10 ds2134        0.167    0        0       0                  1       3      0  
## # ℹ 11 more rows
## # ℹ 5 more variables: Reddit <dbl>, Trouble_falling_asleep <dbl>,
## #   `Mood Productivity` <dbl>, `Tired waking up in morning` <dbl>,
## #   `How you felt the entire week?` <dbl>
…
